<?xml version="1.0" standalone="no"?>
<!DOCTYPE svg PUBLIC "-//W3C//DTD SVG 20010904//EN"
 "http://www.w3.org/TR/2001/REC-SVG-20010904/DTD/svg10.dtd">
<svg version="1.0" xmlns="http://www.w3.org/2000/svg"
 width="500.000000pt" height="500.000000pt" viewBox="0 0 500.000000 500.000000"
 preserveAspectRatio="xMidYMid meet">
<metadata>
Created by potrace 1.14, written by Peter Selinger 2001-2017
</metadata>
<g transform="translate(0.000000,500.000000) scale(0.100000,-0.100000)"
fill="#000000" stroke="none">
<path d="M1260 3290 l0 -550 555 0 555 0 0 550 0 550 -555 0 -555 0 0 -550z"/>
<path d="M2651 3290 c-17 -10 -7 -40 13 -40 7 0 16 6 19 14 8 19 -15 37 -32
26z"/>
<path d="M3341 3287 c-14 -17 3 -41 23 -34 9 4 16 13 16 21 0 19 -26 28 -39
13z"/>
<path d="M3560 3195 c0 -88 1 -95 20 -95 19 0 20 7 20 95 0 88 -1 95 -20 95
-19 0 -20 -7 -20 -95z"/>
<path d="M2500 3185 c0 -78 2 -85 20 -85 15 0 20 7 20 29 0 27 3 30 37 33 27
2 39 8 41 21 3 14 -4 17 -37 17 -34 0 -41 3 -41 20 0 17 7 20 40 20 29 0 40 4
40 15 0 12 -13 15 -60 15 l-60 0 0 -85z"/>
<path d="M2782 3231 c-7 -4 -24 -6 -38 -3 -23 4 -24 3 -24 -62 0 -59 2 -66 20
-66 17 0 20 7 20 39 0 39 20 68 40 56 5 -3 10 -26 10 -51 0 -37 3 -44 20 -44
18 0 20 7 20 60 0 56 -2 61 -26 70 -30 12 -26 12 -42 1z"/>
<path d="M2913 3233 c-38 -7 -28 -33 12 -33 19 0 35 -4 35 -10 0 -5 -12 -10
-27 -10 -41 0 -55 -13 -51 -46 3 -28 5 -29 61 -31 l57 -2 0 52 c0 29 -4 57 -8
64 -9 14 -49 22 -79 16z m45 -85 c-7 -19 -38 -22 -38 -4 0 10 9 16 21 16 12 0
19 -5 17 -12z"/>
<path d="M3106 3233 c-4 -4 -22 -6 -41 -5 l-35 3 0 -66 c0 -63 1 -65 25 -65
23 0 25 4 25 44 0 25 5 48 10 51 20 12 40 -17 40 -56 0 -32 3 -39 20 -39 18 0
20 7 20 54 0 45 -4 58 -22 70 -25 18 -32 19 -42 9z"/>
<path d="M3230 3229 c-31 -13 -40 -26 -40 -65 0 -38 27 -64 67 -64 37 0 65 27
43 40 -9 5 -20 5 -27 -2 -18 -15 -45 9 -41 36 2 17 10 21 37 21 42 0 52 21 16
35 -14 5 -27 10 -28 9 -1 0 -13 -5 -27 -10z"/>
<path d="M3440 3231 c-35 -10 -33 -37 2 -33 15 2 33 0 40 -5 9 -5 -1 -10 -26
-13 -45 -6 -67 -31 -50 -57 8 -13 26 -18 68 -20 l56 -1 0 53 c0 30 -5 57 -12
63 -20 15 -51 20 -78 13z m48 -83 c-5 -15 -48 -24 -48 -10 0 14 12 22 33 22
10 0 17 -5 15 -12z"/>
<path d="M2640 3165 c0 -63 1 -65 25 -65 24 0 25 2 25 65 0 63 -1 65 -25 65
-24 0 -25 -2 -25 -65z"/>
<path d="M3330 3165 c0 -63 1 -65 25 -65 24 0 25 2 25 65 0 63 -1 65 -25 65
-24 0 -25 -2 -25 -65z"/>
<path d="M3137 3004 c-4 -4 -7 -21 -7 -37 0 -24 -3 -27 -14 -18 -18 15 -61 -1
-75 -28 -32 -58 3 -100 84 -100 l56 0 -3 92 c-2 73 -6 92 -18 95 -9 1 -19 0
-23 -4z m-9 -117 c4 -34 -25 -49 -44 -22 -10 13 -10 23 -3 37 15 27 43 18 47
-15z"/>
<path d="M2500 2905 c0 -78 2 -85 20 -85 15 0 20 7 20 29 0 27 3 30 37 33 27
2 39 8 41 21 3 14 -4 17 -37 17 -34 0 -41 3 -41 20 0 17 7 20 40 20 29 0 40 4
40 15 0 12 -13 15 -60 15 l-60 0 0 -85z"/>
<path d="M2716 2953 c-4 -4 -22 -6 -41 -5 l-35 3 0 -66 c0 -63 1 -65 25 -65
23 0 25 4 25 44 0 36 4 46 20 51 11 3 20 15 20 26 0 20 -3 23 -14 12z"/>
<path d="M2780 2949 c-31 -13 -40 -26 -40 -66 0 -49 65 -82 109 -54 18 11 4
34 -16 26 -19 -7 -53 3 -53 16 0 5 20 9 45 9 36 0 45 3 45 18 0 9 -4 22 -8 28
-6 10 -47 35 -54 33 -2 0 -14 -5 -28 -10z m50 -40 c0 -5 -12 -9 -26 -9 -22 0
-24 2 -14 14 12 15 40 11 40 -5z"/>
<path d="M2923 2945 c-32 -13 -38 -27 -34 -69 4 -46 69 -73 111 -46 20 13 4
25 -32 25 -17 0 -33 6 -35 13 -3 8 9 12 41 12 37 0 46 3 46 18 0 23 -10 37
-37 51 -26 13 -20 13 -60 -4z m57 -36 c0 -5 -11 -9 -25 -9 -26 0 -34 15 -12
23 16 5 37 -3 37 -14z"/>
<path d="M3253 2952 c-27 -4 -53 -38 -53 -67 0 -59 92 -86 129 -39 46 59 3
118 -76 106z m45 -65 c4 -34 -25 -49 -44 -22 -10 13 -10 23 -3 37 15 27 43 18
47 -15z"/>
<path d="M3432 2951 c-7 -4 -24 -6 -38 -3 -23 4 -24 3 -24 -62 0 -59 2 -66 20
-66 17 0 20 7 20 39 0 39 20 68 40 56 5 -3 10 -26 10 -51 0 -40 2 -44 25 -44
23 0 25 4 25 44 0 25 5 48 12 52 16 10 38 -25 38 -63 0 -26 4 -33 20 -33 17 0
20 7 20 50 0 37 -5 55 -20 70 -24 24 -30 24 -55 6 -17 -12 -22 -12 -39 0 -23
16 -35 17 -54 5z"/>
<path d="M2480 2080 l0 -550 550 0 550 0 0 550 0 550 -550 0 -550 0 0 -550z"/>
</g>
</svg>
